{"help": "https://data.chhs.ca.gov/api/3/action/help_show?name=datastore_search", "success": true, "result": {"include_total": true, "limit": 20, "records_format": "objects", "resource_id": "cf208dba-89a2-4278-8b47-bfaf98317275", "total_estimation_threshold": null, "records": [{"_id":1,"MonthYear":"Before Jan 2021","IndustrySector":"Accommodation and Food Services","IndividualSetting":"Recreational vehicle parks and camps, and rooming and boarding houses","IndCode":"8670","Outbreaks":2,"Cases":2},{"_id":2,"MonthYear":"Before Jan 2021","IndustrySector":"Accommodation and Food Services","IndividualSetting":"Restaurants and other food services","IndCode":"8680","Outbreaks":275,"Cases":1849},{"_id":3,"MonthYear":"Before Jan 2021","IndustrySector":"Accommodation and Food Services","IndividualSetting":"Traveler accommodation","IndCode":"8660","Outbreaks":36,"Cases":298},{"_id":4,"MonthYear":"Before Jan 2021","IndustrySector":"Administrative and support and waste management services","IndividualSetting":"Business support services","IndCode":"7590","Outbreaks":4,"Cases":30},{"_id":5,"MonthYear":"Before Jan 2021","IndustrySector":"Administrative and support and waste management services","IndividualSetting":"Employment services","IndCode":"7580","Outbreaks":5,"Cases":24},{"_id":6,"MonthYear":"Before Jan 2021","IndustrySector":"Administrative and support and waste management services","IndividualSetting":"Investigation and security services","IndCode":"7680","Outbreaks":6,"Cases":23},{"_id":7,"MonthYear":"Before Jan 2021","IndustrySector":"Administrative and support and waste management services","IndividualSetting":"Landscaping services","IndCode":"7770","Outbreaks":5,"Cases":38},{"_id":8,"MonthYear":"Before Jan 2021","IndustrySector":"Administrative and support and waste management services","IndividualSetting":"Other administrative and other support services","IndCode":"7780","Outbreaks":9,"Cases":62},{"_id":9,"MonthYear":"Before Jan 2021","IndustrySector":"Administrative and support and waste management services","IndividualSetting":"Services to buildings and dwellings (except cleaning during construction and immediately after construction)","IndCode":"7690","Outbreaks":11,"Cases":67},{"_id":10,"MonthYear":"Before Jan 2021","IndustrySector":"Administrative and support and waste management services","IndividualSetting":"Waste management and remediation services","IndCode":"7790","Outbreaks":13,"Cases":173},{"_id":11,"MonthYear":"Before Jan 2021","IndustrySector":"Agriculture, Forestry, Fishing, and Hunting","IndividualSetting":"Crop production","IndCode":"170","Outbreaks":42,"Cases":415},{"_id":12,"MonthYear":"Before Jan 2021","IndustrySector":"Agriculture, Forestry, Fishing, and Hunting","IndividualSetting":"Support activities for agriculture and forestry","IndCode":"290","Outbreaks":15,"Cases":255},{"_id":13,"MonthYear":"Before Jan 2021","IndustrySector":"Arts, Entertainment, and Recreation","IndividualSetting":"Museums, art galleries, historical sites, and similar institutions","IndCode":"8570","Outbreaks":6,"Cases":55},{"_id":14,"MonthYear":"Before Jan 2021","IndustrySector":"Arts, Entertainment, and Recreation","IndividualSetting":"Other amusement, gambling, and recreation industries","IndCode":"8590","Outbreaks":19,"Cases":138},{"_id":15,"MonthYear":"Before Jan 2021","IndustrySector":"Arts, Entertainment, and Recreation","IndividualSetting":"Performing arts, spectator sports, and related industries","IndCode":"8560","Outbreaks":2,"Cases":16},{"_id":16,"MonthYear":"Before Jan 2021","IndustrySector":"Construction","IndividualSetting":"Construction","IndCode":"770","Outbreaks":109,"Cases":1325},{"_id":17,"MonthYear":"Before Jan 2021","IndustrySector":"Educational Services","IndividualSetting":"Colleges, universities, and professional schools, including junior colleges","IndCode":"7870","Outbreaks":52,"Cases":833},{"_id":18,"MonthYear":"Before Jan 2021","IndustrySector":"Educational Services","IndividualSetting":"Elementary and secondary schools","IndCode":"7860","Outbreaks":111,"Cases":747},{"_id":19,"MonthYear":"Before Jan 2021","IndustrySector":"Educational Services","IndividualSetting":"Other schools and instruction, and educational support services","IndCode":"7890","Outbreaks":3,"Cases":11},{"_id":20,"MonthYear":"Before Jan 2021","IndustrySector":"Finance and Insurance","IndividualSetting":"Banking and related activities","IndCode":"6870","Outbreaks":16,"Cases":119}], "fields": [{"id": "_id", "type": "int"}, {"id": "MonthYear", "type": "text", "info": {"label": "", "notes": "Year and month of outbreak episode date. Episode date is an estimated onset date. Because onset date may not always be recorded, the episode date can range from the first appearance of symptoms in an outbreak-associated case to date of report to CDPH.\r\n\r\nValues include:\r\nMonth and Year", "type_override": ""}}, {"id": "IndustrySector", "type": "text", "info": {"label": "", "notes": "Industry sector in which outbreaks occurred.\r\n\r\nValues include:\r\nIndustry Sectors, as classified in the US Census Bureau 2012 Industry Code List: https://www.census.gov/topics/employment/industry-occupation/guidance/code-lists.html. Each industry sector includes a number of individual industries.", "type_override": ""}}, {"id": "IndividualSetting", "type": "text", "info": {"label": "", "notes": "Individual industry in which outbreaks occurred.\r\n\r\nValues include:\r\nIndividual industries, as classified in the US Census Bureau 2012 Industry Code List: https://www.census.gov/topics/employment/industry-occupation/guidance/code-lists.html.", "type_override": ""}}, {"id": "IndCode", "type": "text", "info": {"label": "", "notes": "Census industry code for the individual industry.\r\n\r\nValues include:\r\n4-digit individual industry codes, as classified in the US Census Bureau 2012 Industry Code List: https://www.census.gov/topics/employment/industry-occupation/guidance/code-lists.html.", "type_override": ""}}, {"id": "Outbreaks", "type": "numeric", "info": {"label": "", "notes": "Total number of confirmed COVID-19 outbreaks reported to the California Department of Public Health (CDPH).\r\n\r\nValue:  \r\nPositive numeric", "type_override": "numeric"}}, {"id": "Cases", "type": "numeric", "info": {"label": "", "notes": "Total number of cases associated with reported outbreaks.\r\n\r\nValue:  \r\nPositive numeric ", "type_override": "numeric"}}], "_links": {"start": "/api/3/action/datastore_search?limit=20&resource_id=cf208dba-89a2-4278-8b47-bfaf98317275", "next": "/api/3/action/datastore_search?limit=20&resource_id=cf208dba-89a2-4278-8b47-bfaf98317275&offset=20"}, "total": 3834, "total_was_estimated": false}}