{"description":"Documents from Foreign Assets Control Office","count":2589,"total_pages":50,"next_page_url":"https://www.federalregister.gov/api/v1/documents?conditions%5Bagencies%5D%5B%5D=foreign-assets-control-office&fields%5B%5D=title&fields%5B%5D=publication_date&fields%5B%5D=type&fields%5B%5D=document_number&fields%5B%5D=html_url&format=json&order=newest&page=2&per_page=50&search_after_cursor=WzE3NzM3MDU2MDAwMDAsIjIwMjYtMDUxMTQiXQ","results":[{"title":"Notice of OFAC Sanctions Actions","publication_date":"2026-07-06","type":"Notice","document_number":"2026-13494","html_url":"https://www.federalregister.gov/documents/2026/07/06/2026-13494/notice-of-ofac-sanctions-actions"},{"title":"Notice of OFAC Sanctions Action","publication_date":"2026-07-02","type":"Notice","document_number":"2026-13389","html_url":"https://www.federalregister.gov/documents/2026/07/02/2026-13389/notice-of-ofac-sanctions-action"},{"title":"Notice of OFAC Sanctions Action","publication_date":"2026-07-02","type":"Notice","document_number":"2026-13388","html_url":"https://www.federalregister.gov/documents/2026/07/02/2026-13388/notice-of-ofac-sanctions-action"},{"title":"Notice of OFAC Sanctions Action","publication_date":"2026-07-02","type":"Notice","document_number":"2026-13387","html_url":"https://www.federalregister.gov/documents/2026/07/02/2026-13387/notice-of-ofac-sanctions-action"},{"title":"Notice of OFAC Sanctions Actions","publication_date":"2026-07-02","type":"Notice","document_number":"2026-13363","html_url":"https://www.federalregister.gov/documents/2026/07/02/2026-13363/notice-of-ofac-sanctions-actions"},{"title":"Notice of OFAC Sanctions Actions","publication_date":"2026-07-01","type":"Notice","document_number":"2026-13303","html_url":"https://www.federalregister.gov/documents/2026/07/01/2026-13303/notice-of-ofac-sanctions-actions"},{"title":"Notice of OFAC Sanctions Actions","publication_date":"2026-07-01","type":"Notice","document_number":"2026-13279","html_url":"https://www.federalregister.gov/documents/2026/07/01/2026-13279/notice-of-ofac-sanctions-actions"},{"title":"Notice of OFAC Sanctions Action","publication_date":"2026-07-01","type":"Notice","document_number":"2026-13278","html_url":"https://www.federalregister.gov/documents/2026/07/01/2026-13278/notice-of-ofac-sanctions-action"},{"title":"Notice of OFAC Sanctions Action","publication_date":"2026-06-30","type":"Notice","document_number":"2026-13102","html_url":"https://www.federalregister.gov/documents/2026/06/30/2026-13102/notice-of-ofac-sanctions-action"},{"title":"Notice of OFAC Sanctions Action","publication_date":"2026-06-29","type":"Notice","document_number":"2026-13059","html_url":"https://www.federalregister.gov/documents/2026/06/29/2026-13059/notice-of-ofac-sanctions-action"},{"title":"Notice of OFAC Sanctions Action","publication_date":"2026-06-26","type":"Notice","document_number":"2026-12916","html_url":"https://www.federalregister.gov/documents/2026/06/26/2026-12916/notice-of-ofac-sanctions-action"},{"title":"Notice of OFAC Sanctions Action","publication_date":"2026-06-24","type":"Notice","document_number":"2026-12628","html_url":"https://www.federalregister.gov/documents/2026/06/24/2026-12628/notice-of-ofac-sanctions-action"},{"title":"Notice of OFAC Sanctions Action","publication_date":"2026-06-12","type":"Notice","document_number":"2026-11896","html_url":"https://www.federalregister.gov/documents/2026/06/12/2026-11896/notice-of-ofac-sanctions-action"},{"title":"Publication of the List of Medical Devices Requiring Specific Authorization for the North Korea Sanctions Regulations","publication_date":"2026-06-11","type":"Rule","document_number":"2026-11761","html_url":"https://www.federalregister.gov/documents/2026/06/11/2026-11761/publication-of-the-list-of-medical-devices-requiring-specific-authorization-for-the-north-korea"},{"title":"Publication of Venezuela Sanctions Regulations Web General Licenses 48A and 49A","publication_date":"2026-06-10","type":"Rule","document_number":"2026-11616","html_url":"https://www.federalregister.gov/documents/2026/06/10/2026-11616/publication-of-venezuela-sanctions-regulations-web-general-licenses-48a-and-49a"},{"title":"Publication of Venezuela Sanctions Regulations Web General Licenses 5U and 5V","publication_date":"2026-06-10","type":"Rule","document_number":"2026-11615","html_url":"https://www.federalregister.gov/documents/2026/06/10/2026-11615/publication-of-venezuela-sanctions-regulations-web-general-licenses-5u-and-5v"},{"title":"Publication of Iran-Related Web General Licenses U and V","publication_date":"2026-06-10","type":"Rule","document_number":"2026-11614","html_url":"https://www.federalregister.gov/documents/2026/06/10/2026-11614/publication-of-iran-related-web-general-licenses-u-and-v"},{"title":"Publication of International Criminal Court-Related Sanctions Regulations Web General License 11","publication_date":"2026-06-10","type":"Rule","document_number":"2026-11601","html_url":"https://www.federalregister.gov/documents/2026/06/10/2026-11601/publication-of-international-criminal-court-related-sanctions-regulations-web-general-license-11"},{"title":"Publication of Cyber-Related Sanctions Regulations Web General License 2","publication_date":"2026-06-10","type":"Rule","document_number":"2026-11592","html_url":"https://www.federalregister.gov/documents/2026/06/10/2026-11592/publication-of-cyber-related-sanctions-regulations-web-general-license-2"},{"title":"Notice of OFAC Sanctions Action","publication_date":"2026-06-08","type":"Notice","document_number":"2026-11417","html_url":"https://www.federalregister.gov/documents/2026/06/08/2026-11417/notice-of-ofac-sanctions-action"},{"title":"Notice of OFAC Sanctions Action","publication_date":"2026-06-03","type":"Notice","document_number":"2026-11042","html_url":"https://www.federalregister.gov/documents/2026/06/03/2026-11042/notice-of-ofac-sanctions-action"},{"title":"Notice of OFAC Sanctions Actions","publication_date":"2026-06-02","type":"Notice","document_number":"2026-10977","html_url":"https://www.federalregister.gov/documents/2026/06/02/2026-10977/notice-of-ofac-sanctions-actions"},{"title":"Notice of OFAC Sanctions Action","publication_date":"2026-05-27","type":"Notice","document_number":"2026-10518","html_url":"https://www.federalregister.gov/documents/2026/05/27/2026-10518/notice-of-ofac-sanctions-action"},{"title":"Notice of OFAC Sanctions Action","publication_date":"2026-05-26","type":"Notice","document_number":"2026-10432","html_url":"https://www.federalregister.gov/documents/2026/05/26/2026-10432/notice-of-ofac-sanctions-action"},{"title":"Notice of OFAC Sanctions Action","publication_date":"2026-05-26","type":"Notice","document_number":"2026-10431","html_url":"https://www.federalregister.gov/documents/2026/05/26/2026-10431/notice-of-ofac-sanctions-action"},{"title":"Notice of OFAC Sanctions Action","publication_date":"2026-05-22","type":"Notice","document_number":"2026-10259","html_url":"https://www.federalregister.gov/documents/2026/05/22/2026-10259/notice-of-ofac-sanctions-action"},{"title":"Notice of OFAC Sanctions Action","publication_date":"2026-05-15","type":"Notice","document_number":"2026-09758","html_url":"https://www.federalregister.gov/documents/2026/05/15/2026-09758/notice-of-ofac-sanctions-action"},{"title":"Notice of OFAC Sanctions Action","publication_date":"2026-05-14","type":"Notice","document_number":"2026-09631","html_url":"https://www.federalregister.gov/documents/2026/05/14/2026-09631/notice-of-ofac-sanctions-action"},{"title":"Notice of OFAC Sanctions Action","publication_date":"2026-05-11","type":"Notice","document_number":"2026-09251","html_url":"https://www.federalregister.gov/documents/2026/05/11/2026-09251/notice-of-ofac-sanctions-action"},{"title":"Notice of OFAC Sanctions Action","publication_date":"2026-05-11","type":"Notice","document_number":"2026-09250","html_url":"https://www.federalregister.gov/documents/2026/05/11/2026-09250/notice-of-ofac-sanctions-action"},{"title":"Notice of OFAC Sanctions Action","publication_date":"2026-05-11","type":"Notice","document_number":"2026-09249","html_url":"https://www.federalregister.gov/documents/2026/05/11/2026-09249/notice-of-ofac-sanctions-action"},{"title":"Publication of Iranian Transactions and Sanctions Regulations Web General Licenses","publication_date":"2026-05-07","type":"Rule","document_number":"2026-09094","html_url":"https://www.federalregister.gov/documents/2026/05/07/2026-09094/publication-of-iranian-transactions-and-sanctions-regulations-web-general-licenses"},{"title":"Publication of Venezuela Sanctions Regulations Web General Licenses 46, 46A, and 46B","publication_date":"2026-05-07","type":"Rule","document_number":"2026-09092","html_url":"https://www.federalregister.gov/documents/2026/05/07/2026-09092/publication-of-venezuela-sanctions-regulations-web-general-licenses-46-46a-and-46b"},{"title":"Publication of Venezuela Sanctions Regulations Web General Licenses 47, 48, 49, and 50","publication_date":"2026-05-07","type":"Rule","document_number":"2026-09090","html_url":"https://www.federalregister.gov/documents/2026/05/07/2026-09090/publication-of-venezuela-sanctions-regulations-web-general-licenses-47-48-49-and-50"},{"title":"Publication of Russian Harmful Foreign Activities Sanctions Regulations Web General Licenses 55E, 115C, 13P, and 131C","publication_date":"2026-05-07","type":"Rule","document_number":"2026-09088","html_url":"https://www.federalregister.gov/documents/2026/05/07/2026-09088/publication-of-russian-harmful-foreign-activities-sanctions-regulations-web-general-licenses-55e"},{"title":"Publication of a Democratic Republic of the Congo Sanctions Regulations Web General License","publication_date":"2026-05-07","type":"Rule","document_number":"2026-09086","html_url":"https://www.federalregister.gov/documents/2026/05/07/2026-09086/publication-of-a-democratic-republic-of-the-congo-sanctions-regulations-web-general-license"},{"title":"Publication of a Global Terrorism Sanctions Regulations and Illicit Drug Trade Sanctions Regulations Web General License","publication_date":"2026-05-07","type":"Rule","document_number":"2026-09085","html_url":"https://www.federalregister.gov/documents/2026/05/07/2026-09085/publication-of-a-global-terrorism-sanctions-regulations-and-illicit-drug-trade-sanctions-regulations"},{"title":"Publication of a Belarus Sanctions Regulations Web General License","publication_date":"2026-05-07","type":"Rule","document_number":"2026-09084","html_url":"https://www.federalregister.gov/documents/2026/05/07/2026-09084/publication-of-a-belarus-sanctions-regulations-web-general-license"},{"title":"Notice of OFAC Sanctions Action","publication_date":"2026-05-05","type":"Notice","document_number":"2026-08672","html_url":"https://www.federalregister.gov/documents/2026/05/05/2026-08672/notice-of-ofac-sanctions-action"},{"title":"Notice of OFAC Sanctions Action","publication_date":"2026-04-27","type":"Notice","document_number":"2026-08151","html_url":"https://www.federalregister.gov/documents/2026/04/27/2026-08151/notice-of-ofac-sanctions-action"},{"title":"Notice of OFAC Sanctions Action","publication_date":"2026-04-24","type":"Notice","document_number":"2026-07994","html_url":"https://www.federalregister.gov/documents/2026/04/24/2026-07994/notice-of-ofac-sanctions-action"},{"title":"Notice of OFAC Sanctions Actions","publication_date":"2026-04-23","type":"Notice","document_number":"2026-07897","html_url":"https://www.federalregister.gov/documents/2026/04/23/2026-07897/notice-of-ofac-sanctions-actions"},{"title":"Notice of OFAC Sanctions Action","publication_date":"2026-04-21","type":"Notice","document_number":"2026-07699","html_url":"https://www.federalregister.gov/documents/2026/04/21/2026-07699/notice-of-ofac-sanctions-action"},{"title":"Notice of OFAC Sanctions Action","publication_date":"2026-04-16","type":"Notice","document_number":"2026-07425","html_url":"https://www.federalregister.gov/documents/2026/04/16/2026-07425/notice-of-ofac-sanctions-action"},{"title":"Permitted Payment Stablecoin Issuer Anti-Money Laundering/Countering the Financing of Terrorism Program and Sanctions Compliance Program Requirements","publication_date":"2026-04-10","type":"Proposed Rule","document_number":"2026-06963","html_url":"https://www.federalregister.gov/documents/2026/04/10/2026-06963/permitted-payment-stablecoin-issuer-anti-money-launderingcountering-the-financing-of-terrorism"},{"title":"Notice of OFAC Sanctions Actions","publication_date":"2026-04-07","type":"Notice","document_number":"2026-06723","html_url":"https://www.federalregister.gov/documents/2026/04/07/2026-06723/notice-of-ofac-sanctions-actions"},{"title":"Notice of OFAC Sanctions Action","publication_date":"2026-03-25","type":"Notice","document_number":"2026-05748","html_url":"https://www.federalregister.gov/documents/2026/03/25/2026-05748/notice-of-ofac-sanctions-action"},{"title":"Notice of OFAC Sanctions Action","publication_date":"2026-03-20","type":"Notice","document_number":"2026-05454","html_url":"https://www.federalregister.gov/documents/2026/03/20/2026-05454/notice-of-ofac-sanctions-action"},{"title":"Notice of OFAC Sanctions Actions","publication_date":"2026-03-18","type":"Notice","document_number":"2026-05225","html_url":"https://www.federalregister.gov/documents/2026/03/18/2026-05225/notice-of-ofac-sanctions-actions"},{"title":"Notice of OFAC Sanctions Action","publication_date":"2026-03-17","type":"Notice","document_number":"2026-05114","html_url":"https://www.federalregister.gov/documents/2026/03/17/2026-05114/notice-of-ofac-sanctions-action"}]}