{"total": 771949, "offset": 0, "next": 2, "data": [{"paperId": "5b9d8bcc46b766b47389c912a8e026f81b91b0d8", "title": "Informer: Beyond Efficient Transformer for Long Sequence Time-Series Forecasting", "year": 2020, "publicationDate": "2020-12-14"}, {"paperId": "fc46ccb83dc121c33de7ab6bdedab7d970780b2f", "title": "Autoformer: Decomposition Transformers with Auto-Correlation for Long-Term Series Forecasting", "year": 2021, "publicationDate": "2021-06-24"}]}
